{
  "project_info": {
    "project_number": "808860938646",
    "firebase_url": "https://ezeride-97aaa.firebaseio.com",
    "project_id": "ezeride-97aaa",
    "storage_bucket": "ezeride-97aaa.appspot.com"
  },
  "client": [
    {
      "client_info": {
        "mobilesdk_app_id": "1:808860938646:android:ba69e2d21d32e3279a2db7",
        "android_client_info": {
          "package_name": "com.auezeride.app"
        }
      },
      "oauth_client": [
        {
          "client_id": "808860938646-9dh7gskiisunncktlvhfsp1gi1n82al4.apps.googleusercontent.com",
          "client_type": 3
        }
      ],
      "api_key": [
        {
          "current_key": "AIzaSyBYgrFWmpOX5ty4aq6XX_iR3fH9J0jAm4U"
        }
      ],
      "services": {
        "appinvite_service": {
          "other_platform_oauth_client": [
            {
              "client_id": "808860938646-9dh7gskiisunncktlvhfsp1gi1n82al4.apps.googleusercontent.com",
              "client_type": 3
            },
            {
              "client_id": "80886093864-6-ig18bgudpa9ikt8pt1atrquls6r88fb3.apps.googleusercontent.com",
              "client_type": 2,
              "ios_info": {
                "bundle_id": "com.ezeride.app"
              }
            }
          ]
        }
      }
    },
    {
      "client_info": {
        "mobilesdk_app_id": "1:808860938646:android:2eacb5a17461aa799a2db7",
        "android_client_info": {
          "package_name": "com.auezeride.driver"
        }
      },
      "oauth_client": [
        {
          "client_id": "808860938646-9dh7gskiisunncktlvhfsp1gi1n82al4.apps.googleusercontent.com",
          "client_type": 3
        }
      ],
      "api_key": [
        {
          "current_key": "AIzaSyBYgrFWmpOX5ty4aq6XX_iR3fH9J0jAm4U"
        }
      ],
      "services": {
        "appinvite_service": {
          "other_platform_oauth_client": [
            {
              "client_id": "808860938646-9dh7gskiisunncktlvhfsp1gi1n82al4.apps.googleusercontent.com",
              "client_type": 3
            },
            {
              "client_id": "808860938646-ig18bgudpa9ikt8pt1atrquls6r88fb3.apps.googleusercontent.com",
              "client_type": 2,
              "ios_info": {
                "bundle_id": "com.ezeride.driver"
              }
            }
          ]
        }
      }
    }
  ],
  "configuration_version": "1"
}